[
    {
        "id": "123",
        "name": "Placki Choco's",
        "description": "Placki Czekoladowe",
        "category": "placki",
        "price": 9.97,
        "promotion": false
    },
    {
        "id": "345",
        "name": "Nalesniki",
        "description": "Nalesniki Truskawkowe",
        "category": "Nalesniki",
        "price": 19.97,
        "promotion": true,
        "review": { "rating": 3 }
    },
    {
        "id": "456",
        "name": "Pancakes",
        "description": "Pancakes z syropem",
        "category": "Pancakes",
        "price": 19.97,
        "promotion": true,
        "discount": 0.15,
        "review": { "rating": 3 }
    },
    {
        "id": "234",
        "name": "Placki Banana's",
        "description": "Placki Bananowe",
        "category": "placki",
        "price": 8.97,
        "promotion": true,
        "discount": 0.10
    }
]